PGS Catalog Calculator (pgsc_calc) report
…
Success

All requested scores were calculated successfully

2 scores for 3504 samples processed.

Score data

Score extract

Note

Below is a summary of the aggregated scores, which might be useful for debugging. See here for an explanation of plink2 column names

# A tibble: 7,008 × 8
   sampleset IID       PGS                  SUM Z_MostSimilarPop Z_norm1 Z_norm2
   <chr>     <chr>     <chr>              <dbl>            <dbl>   <dbl>   <dbl>
 1 hgdp      HGDP00001 PGS000882_hmPOS_… -0.546            2.05    1.57    1.49 
 2 hgdp      HGDP00003 PGS000882_hmPOS_… -1.22            -0.816  -1.42   -1.34 
 3 hgdp      HGDP00005 PGS000882_hmPOS_… -0.869            0.682   0.140   0.136
 4 hgdp      HGDP00007 PGS000882_hmPOS_… -0.860            0.720   0.216   0.207
 5 hgdp      HGDP00009 PGS000882_hmPOS_… -0.627            1.71    1.23    1.16 
 6 hgdp      HGDP00011 PGS000882_hmPOS_… -0.764            1.13    0.615   0.582
 7 hgdp      HGDP00013 PGS000882_hmPOS_… -0.685            1.46    1.01    0.993
 8 hgdp      HGDP00015 PGS000882_hmPOS_… -0.833            0.837   0.304   0.289
 9 hgdp      HGDP00017 PGS000882_hmPOS_… -0.627            1.71    1.20    1.14 
10 hgdp      HGDP00019 PGS000882_hmPOS_… -0.840            0.806   0.238   0.228
# ℹ 6,998 more rows
# ℹ 1 more variable: percentile_MostSimilarPop <dbl>
…
